{
  "callId": 1,
  "logs": [
    {
      "FK_CallStatus_Id": "11",
      "status": "survey",
      "customerServiceName": "messi :D",
      "date": "11/2/2017",
      "customerServiceComment": "Call Started and need reviewing"
    },
    {
      "FK_CallStatus_Id": "13",
      "status": "visit",
      "customerServiceName": "messi :D",
      "date": "11/5/2017",
      "customerServiceComment": "Needs survey"
    }
  ]
}


